%YAML 1.1
%TAG !u! tag:unity3d.com,2011:
--- !u!21 &2100000
Material:
  serializedVersion: 6
  m_ObjectHideFlags: 0
  m_CorrespondingSourceObject: {fileID: 0}
  m_PrefabInstance: {fileID: 0}
  m_PrefabAsset: {fileID: 0}
  m_Name: Shader Graphs_SH_Projectile_01
  m_Shader: {fileID: 4800000, guid: d6b1043b4044a4045ad584d6c753f048, type: 3}
  m_ShaderKeywords: 
  m_LightmapFlags: 4
  m_EnableInstancingVariants: 0
  m_DoubleSidedGI: 0
  m_CustomRenderQueue: -1
  stringTagMap:
    MotionVector: User
  disabledShaderPasses:
  - MOTIONVECTORS
  m_SavedProperties:
    serializedVersion: 3
    m_TexEnvs:
    - Texture2D_A10B245:
        m_Texture: {fileID: 2800000, guid: 59692bf2c1bc907469474def765a6289, type: 3}
        m_Scale: {x: 1, y: 1}
        m_Offset: {x: 0, y: 0}
    - Texture2D_B438B1C5:
        m_Texture: {fileID: 2800000, guid: 048e861e97db2ce40aba83e275991af3, type: 3}
        m_Scale: {x: 1, y: 1}
        m_Offset: {x: 0, y: 0}
    - _BaseTexture:
        m_Texture: {fileID: 2800000, guid: 59692bf2c1bc907469474def765a6289, type: 3}
        m_Scale: {x: 1, y: 1}
        m_Offset: {x: 0, y: 0}
    - _SampleTexture2D_594EEE02_Texture:
        m_Texture: {fileID: 0}
        m_Scale: {x: 1, y: 1}
        m_Offset: {x: 0, y: 0}
    - _UVDistortTexture:
        m_Texture: {fileID: 2800000, guid: 048e861e97db2ce40aba83e275991af3, type: 3}
        m_Scale: {x: 1, y: 1}
        m_Offset: {x: 0, y: 0}
    m_Floats:
    - Vector1_B97B6355: 0.349
    - _OffsetAnimation: 0.5
    m_Colors:
    - Color_21611E35: {r: 1.4980392, g: 0.8627451, b: 0, a: 1}
    - Color_F205DCC4: {r: 1.4980392, g: 0.03137255, b: 0, a: 1}
    - _InnerColor: {r: 2.828427, g: 1.6305051, b: 0, a: 1}
    - _OuterColor: {r: 1, g: 0, b: 0, a: 1}
